[gd_resource type="DynamicFont" load_steps=2 format=2]

[ext_resource path="res://assets/fonts/Raleway/static/Raleway-ExtraBold.ttf" type="DynamicFontData" id=1]

[resource]
size = 60
font_data = ExtResource( 1 )
