[gd_resource type="Resource" load_steps=2 format=2]

[ext_resource path="res://resources/email_data/EmailData.gd" type="Script" id=1]

[resource]
script = ExtResource( 1 )
sender_name = "Lookle"
sender_email = "no-reply@lookle.com"
subject = "Alerta de segurança"
contents = "Novo login no Windows.

Detectamos um novo login na sua Conta do Lookle em um Windows. Se foi você que fez isso, [b]nenhuma ação é necessária[/b]. Se não foi, ajudaremos a proteger sua conta."
correct_action = 0
importance = 0
