[gd_resource type="Resource" load_steps=2 format=2]

[ext_resource path="res://resources/email_data/EmailData.gd" type="Script" id=1]

[resource]
script = ExtResource( 1 )
sender_name = "Roupas TOP"
sender_email = "propaganda@roupastop.com.br"
subject = "Garanta o look de final de ano"
contents = "Moda com entrega rápida e [b]Frete Grátis[/b]. Venha conferir!

Os Looks mais desejados e ofertas imbatíveis no site e no app! Garanta já o melhor da moda."
correct_action = 0
importance = 0
