[gd_resource type="Resource" load_steps=2 format=2]

[ext_resource path="res://resources/email_data/EmailData.gd" type="Script" id=1]

[resource]
script = ExtResource( 1 )
sender_name = "Vitor Antunes"
sender_email = "vitor.antunes@banco.com.br"
subject = "RE: HH!!!!!"
contents = "O Happy Hour foi SINISTROOOOOO!

Quem foi, foi. Quem não foi, melhore."
correct_action = 0
importance = 0
