[gd_resource type="Resource" load_steps=2 format=2]

[ext_resource path="res://resources/email_data/EmailData.gd" type="Script" id=1]

[resource]
script = ExtResource( 1 )
sender_name = "Guild of Fables"
sender_email = "sales@guild-of-fables.com"
subject = "Oferta Skins"
contents = "Torne-se um Fabler! 

Aproveite ao máximo tudo o que o jogo tem a oferecer! Novas skins disponíveis com até [b]20% de desconto[/b] por tempo limitado."
correct_action = 0
importance = 0
